[gd_resource type="Curve3D" format=3 uid="uid://da3oj3kbm1dch"]

[resource]
_data = {
"points": PackedVector3Array(0, 0, 0, 0, 0, 0, 3.236, 1, 1.847, 0, 0, 0, 0, 0, 0, 3.166, 1, 5.545, 0, 0, 0, 0, 0, 0, 13.985, 1, 5.657, 0, 0, 0, 0, 0, 0, 13.647, 1, -6.227, 0, 0, 0, 0, 0, 0, 3.457, 1, -6.161, 0, 0, 0, 0, 0, 0, 3.181, 1, -2.308, 0, 0, 0, 0, 0, 0, 0, 1, 0, 0, 0, 0, 0, 0, 0, 3.236, 1, 1.847),
"tilts": PackedFloat32Array(0, 0, 0, 0, 0, 0, 0, 0)
}
point_count = 8
up_vector_enabled = false
