[gd_scene load_steps=2 format=3 uid="uid://byeab3iima0cs"]

[ext_resource type="PackedScene" uid="uid://cra4a0qcsx0vx" path="res://assets/BlenderModels/Drone.glb" id="1_snwjt"]

[node name="Drone" instance=ExtResource("1_snwjt")]
