# Blender 3.4.1
# www.blender.org
mtllib MainMuseum.mtl
o Circle
v -1.582050 0.500000 11.000000
v -1.391477 0.500000 11.287407
v -1.310920 0.500000 11.552968
v -1.179797 0.500000 11.798282
v -1.003335 0.500000 12.013302
v -0.788315 0.500000 12.189763
v -0.543001 0.500000 12.320887
v -0.276819 0.500000 12.401632
v -0.000000 0.500000 12.428896
v 0.276819 0.500000 12.401632
v 0.543001 0.500000 12.320887
v 0.788315 0.500000 12.189763
v 1.003335 0.500000 12.013302
v 1.179797 0.500000 11.798282
v 1.310920 0.500000 11.552968
v 1.391477 0.500000 11.287407
v 1.582050 0.500000 11.000000
v -11.000000 1.000000 11.000000
v 11.000000 1.000000 11.000000
v -10.000000 11.000000 -39.295097
v -10.000000 11.000000 10.000000
v 10.000000 11.000000 10.000000
v 10.000000 11.000000 -39.295097
v -11.000000 11.000000 -40.295097
v -11.000000 11.000000 11.000000
v 11.000000 11.000000 11.000000
v 11.000000 11.000000 -40.295097
v -1.553164 0.000000 11.318911
v -1.582050 0.000000 11.000000
v -1.463048 0.000000 11.615981
v -1.316709 0.000000 11.889764
v -1.119769 0.000000 12.129735
v -0.879797 0.000000 12.326675
v -0.606014 0.000000 12.473015
v -0.308943 0.000000 12.563130
v -0.000000 0.000000 12.593558
v 0.308943 0.000000 12.563130
v 0.606014 0.000000 12.473015
v 0.879797 0.000000 12.326675
v 1.119769 0.000000 12.129735
v 1.316709 0.000000 11.889764
v 1.463048 0.000000 11.615981
v 1.553164 0.000000 11.318911
v 1.582050 0.000000 11.000000
v -11.000000 9.250000 -40.295097
v 11.000000 9.250000 -40.295097
v 11.000000 9.250000 11.000000
v -11.000000 9.250000 -17.212303
v -11.000000 9.250000 -12.082794
v 11.000000 9.250000 -8.197449
v 11.000000 0.000000 -8.197445
v 11.000000 11.000000 -9.197449
v 11.000000 11.000000 -8.197449
v 27.007530 11.000000 -8.197449
v 26.007530 11.000000 -9.197449
v 27.007530 11.000000 -56.000004
v 26.007530 11.000000 -55.000004
v -26.000000 10.999994 -9.197462
v -27.000000 11.000005 -8.197462
v -27.000000 11.000005 -56.000042
v -26.000000 11.000005 -55.000042
v -1.553164 0.500000 11.318911
v -1.463048 0.500000 11.615981
v -1.402667 0.500000 11.163870
v -1.316709 0.500000 11.889764
v -1.119769 0.500000 12.129735
v -0.879797 0.500000 12.326675
v -0.606014 0.500000 12.473015
v -0.308943 0.500000 12.563130
v -0.000000 0.500000 12.593558
v 0.308943 0.500000 12.563130
v 0.606014 0.500000 12.473015
v 0.879797 0.500000 12.326675
v 1.119769 0.500000 12.129735
v 1.316709 0.500000 11.889764
v 1.463048 0.500000 11.615981
v 1.553164 0.500000 11.318911
v 1.402667 0.500000 11.163870
vn -0.2903 -0.0000 0.9569
vn 0.9569 -0.0000 0.2903
vn -0.0980 -0.0000 0.9952
vn -0.9959 -0.0000 0.0902
vn 0.9959 -0.0000 0.0902
vn 0.0980 -0.0000 0.9952
vn -0.9569 -0.0000 0.2903
vn 0.2903 -0.0000 0.9569
vn -0.8819 -0.0000 0.4714
vn 0.4714 -0.0000 0.8819
vn -0.7730 -0.0000 0.6344
vn 0.6344 -0.0000 0.7730
vn -0.6344 -0.0000 0.7730
vn 0.7730 -0.0000 0.6344
vn -0.4714 -0.0000 0.8819
vn 0.8819 -0.0000 0.4714
vn -0.0000 1.0000 -0.0000
vt 0.000000 0.000000
vt 0.000000 0.000000
vt 0.000000 0.000000
vt 0.000000 0.000000
vt 0.000000 0.000000
vt 0.000000 0.000000
vt 0.000000 0.000000
vt 0.000000 0.000000
vt 0.000000 0.000000
vt 0.000000 0.000000
vt 0.000000 0.000000
vt 0.000000 0.000000
vt 0.000000 0.000000
vt 0.000000 0.000000
vt 0.000000 0.000000
vt 0.000000 0.000000
vt 0.000000 0.000000
vt 0.000000 0.000000
vt 0.000000 0.000000
vt 0.000000 0.000000
vt 0.000000 0.000000
vt 0.000000 0.000000
vt 0.000000 0.000000
vt 0.000000 0.000000
vt 0.000000 0.000000
vt 0.000000 0.000000
vt 0.000000 0.000000
vt 0.000000 0.000000
vt 0.000000 0.000000
vt 0.000000 0.000000
vt 0.000000 0.000000
vt 0.000000 0.000000
vt 0.000000 0.000000
vt 0.000000 0.000000
vt 0.000000 0.000000
vt 0.000000 0.000000
vt 0.000000 0.000000
vt 0.000000 0.000000
vt 0.000000 0.000000
vt 0.000000 0.000000
vt 0.000000 0.000000
vt 0.000000 0.000000
vt 0.000000 0.000000
vt 0.000000 0.000000
vt 0.000000 0.000000
vt 0.000000 0.000000
vt 0.000000 0.000000
vt 0.000000 0.000000
vt 0.000000 0.000000
vt 0.000000 0.000000
vt 0.000000 0.000000
s 0
usemtl Material.001
f 68/41/1 34/24/1 35/25/1 69/42/1
f 76/49/2 42/32/2 43/33/2 77/50/2
f 69/42/3 35/25/3 36/26/3 70/43/3
f 1/1/4 29/19/4 28/18/4 62/35/4
f 77/50/5 43/33/5 44/34/5 17/17/5
f 70/43/6 36/26/6 37/27/6 71/44/6
f 62/35/7 28/18/7 30/20/7 63/36/7
f 71/44/8 37/27/8 38/28/8 72/45/8
f 63/36/9 30/20/9 31/21/9 65/38/9
f 72/45/10 38/28/10 39/29/10 73/46/10
f 65/38/11 31/21/11 32/22/11 66/39/11
f 73/46/12 39/29/12 40/30/12 74/47/12
f 66/39/13 32/22/13 33/23/13 67/40/13
f 74/47/14 40/30/14 41/31/14 75/48/14
f 67/40/15 33/23/15 34/24/15 68/41/15
f 75/48/16 41/31/16 42/32/16 76/49/16
f 2/2/17 64/37/17 1/1/17 62/35/17
f 3/3/17 2/2/17 62/35/17 63/36/17
f 4/4/17 3/3/17 63/36/17 65/38/17
f 5/5/17 4/4/17 65/38/17 66/39/17
f 6/6/17 5/5/17 66/39/17 67/40/17
f 7/7/17 6/6/17 67/40/17 68/41/17
f 8/8/17 7/7/17 68/41/17 69/42/17
f 9/9/17 8/8/17 69/42/17 70/43/17
f 10/10/17 9/9/17 70/43/17 71/44/17
f 11/11/17 10/10/17 71/44/17 72/45/17
f 12/12/17 11/11/17 72/45/17 73/46/17
f 13/13/17 12/12/17 73/46/17 74/47/17
f 14/14/17 13/13/17 74/47/17 75/48/17
f 15/15/17 14/14/17 75/48/17 76/49/17
f 16/16/17 15/15/17 76/49/17 77/50/17
f 78/51/17 16/16/17 77/50/17 17/17/17
f 64/37/17 78/51/17 17/17/17 1/1/17
l 29 44
o Floor
v -10.000000 1.000000 10.000000
v 10.000000 1.000000 10.000000
v -10.000000 1.000000 -39.295097
v 10.000000 1.000000 -39.295097
v -11.000000 1.000000 -40.295097
v 11.000000 1.000000 -40.295097
v 10.000000 1.000000 -17.212299
v 11.000000 1.000000 -17.212299
v -10.000000 1.000000 -17.212299
v -11.000000 1.000000 -17.212299
v -10.000000 1.000000 -12.082699
v -11.000000 1.000000 -12.082699
v 10.000000 1.000000 -12.082800
v 11.000000 1.000000 -12.082800
v 2.638280 1.000000 -40.295097
v 2.638280 1.000000 -39.295097
v -2.679950 1.000000 -39.295097
v -2.679950 1.000000 -40.295097
v 11.000000 1.000000 -9.197449
v 26.007530 1.000000 -9.197449
v 26.007530 1.000000 -55.000004
v -11.000000 1.000000 -9.197361
v -26.000000 1.000000 -9.197361
v -26.000000 1.000010 -54.999943
vn -0.0000 1.0000 -0.0000
vt 0.000000 0.000000
vt 1.000000 0.000000
vt 0.000000 1.000000
vt 1.000000 1.000000
vt 0.000000 0.000000
vt 0.000000 0.000000
vt 0.000000 0.000000
vt 1.000000 0.750000
vt 0.000000 0.000000
vt 0.000000 0.750000
vt 0.000000 0.000000
vt 0.000000 0.250000
vt 0.000000 0.000000
vt 0.000000 0.000000
vt 1.000000 0.250000
vt 0.000000 0.000000
vt 0.000000 0.000000
vt 0.750000 1.000000
vt 0.250000 1.000000
vt 0.000000 0.000000
vt 0.000000 0.000000
vt 0.000000 0.000000
vt 0.000000 0.000000
vt 0.000000 0.000000
vt 0.000000 0.000000
vt 0.000000 0.000000
s 0
usemtl Material.001
f 85/58/18 91/65/18 92/67/18 86/60/18
f 96/71/18 95/70/18 94/69/18 93/68/18
f 91/66/18 85/59/18 82/55/18 94/69/18 95/70/18 81/54/18 87/61/18 89/63/18 79/52/18 80/53/18
f 89/63/18 87/61/18 88/62/18 90/64/18
f 99/74/18 102/77/18 101/76/18 100/75/18 90/64/18 88/62/18 83/56/18 96/71/18 93/68/18 84/57/18 86/60/18 92/67/18 97/72/18 98/73/18
o Interior
v -1.582049 6.245447 10.999999
v -1.551650 6.562779 11.007560
v -1.461622 6.867918 11.014830
v -1.315425 7.149134 11.021530
v -1.118677 7.395622 11.027403
v -0.878939 7.597909 11.032223
v -0.605424 7.748223 11.035804
v -0.308642 7.840785 11.038010
v 0.000000 7.872040 11.038754
v 0.308642 7.840785 11.038010
v 0.605424 7.748223 11.035804
v 0.878939 7.597909 11.032223
v 1.118677 7.395622 11.027403
v 1.315425 7.149134 11.021530
v 1.461622 6.867918 11.014830
v 1.551650 6.562779 11.007560
v 1.582049 6.245447 10.999999
v 1.582050 1.000000 10.999999
v -1.582050 1.000000 10.999999
v -1.582049 6.245447 9.979290
v -1.551650 6.562779 9.986851
v -1.461622 6.867918 9.994121
v -1.315425 7.149134 10.000821
v -1.118677 7.395622 10.006694
v -0.878939 7.597909 10.011514
v -0.605424 7.748223 10.015095
v -0.308642 7.840785 10.017301
v 0.000000 7.872040 10.018045
v 0.308642 7.840785 10.017301
v 0.605424 7.748223 10.015095
v 0.878939 7.597909 10.011514
v 1.118677 7.395622 10.006694
v 1.315425 7.149134 10.000821
v 1.461622 6.867918 9.994121
v 1.551650 6.562779 9.986851
v 1.582049 6.245447 9.979290
v 1.582049 1.000000 9.979290
v -1.582049 1.000000 9.979290
v -10.000000 1.000000 10.000000
v 10.000000 1.000000 10.000000
v -10.000000 1.000000 -39.295097
v 10.000000 1.000000 -39.295097
v -11.000000 1.000000 -40.295097
v 11.000000 1.000000 -40.295097
v -10.000000 11.000000 -39.295097
v -10.000000 11.000000 10.000000
v 10.000000 11.000000 10.000000
v 10.000000 11.000000 -39.295097
v -11.000000 11.000000 -40.295097
v 11.000000 11.000000 -40.295097
v -1.582049 6.245447 9.979290
v -1.551650 6.562779 9.986851
v -1.461622 6.867918 9.994121
v -1.315425 7.149134 10.000821
v -1.118677 7.395622 10.006694
v -0.878939 7.597909 10.011514
v -0.605424 7.748223 10.015095
v -0.308642 7.840785 10.017301
v 0.000000 7.872040 10.018045
v 0.308642 7.840785 10.017301
v 0.605424 7.748223 10.015095
v 0.878939 7.597909 10.011514
v 1.118677 7.395622 10.006694
v 1.315425 7.149134 10.000821
v 1.461622 6.867918 9.994121
v 1.551650 6.562779 9.986851
v 1.582049 6.245447 9.979290
v 1.582049 1.000000 9.979290
v -1.582049 1.000000 9.979290
v 10.000000 1.000000 -17.212299
v 11.000000 1.000000 -17.212299
v -10.000000 1.000000 -17.212299
v -11.000000 1.000000 -17.212299
v -10.000000 1.000000 -12.082699
v -11.000000 1.000000 -12.082699
v 10.000000 1.000000 -12.082800
v 11.000000 1.000000 -12.082800
v -11.000000 9.250000 -40.295097
v 11.000000 9.250000 -40.295097
v -11.000000 9.250000 -17.212303
v 11.000000 9.250000 -17.212299
v 11.000000 9.250000 -12.082800
v -11.000000 9.250000 -12.082794
v 2.638280 1.000000 -40.295097
v 2.638280 9.250000 -40.295097
v 2.638280 1.000000 -39.295097
v -2.679950 1.000000 -39.295097
v -2.679950 1.000000 -40.295097
v -2.679950 9.250000 -40.295097
v 10.000000 9.250000 10.000000
v -10.000000 9.250000 10.000000
v 10.000000 9.250000 -39.295097
v -10.000000 9.250000 -39.295097
v 10.000000 9.250000 -17.212299
v -10.000000 9.250000 -17.212299
v -10.000000 9.250000 -12.082699
v 10.000000 9.250000 -12.082800
v 2.638280 9.250000 -39.295097
v -2.679950 9.250000 -39.295097
v 11.000000 1.000000 -9.197449
v 11.000000 9.250000 -9.197449
v 11.000000 11.000000 -9.197449
v 26.007530 1.000000 -9.197449
v 26.007530 9.250000 -9.197449
v 26.007530 11.000000 -9.197449
v 26.007530 1.000000 -55.000004
v 26.007530 9.250000 -55.000004
v 26.007530 11.000000 -55.000004
v -11.000000 1.000000 -9.197361
v -11.000000 9.250000 -9.197445
v -26.000000 1.000000 -9.197361
v -26.000000 9.250000 -9.197445
v -11.000000 10.999994 -9.197462
v -26.000000 10.999994 -9.197462
v -26.000000 1.000010 -54.999943
v -26.000000 9.250010 -55.000019
v -26.000000 11.000005 -55.000042
v -11.000000 11.000000 -40.295097
v 11.000000 11.000000 -40.295097
v -11.000000 9.250000 -40.295097
v 11.000000 9.250000 -40.295097
v 11.000000 9.250000 -9.197449
v 11.000000 11.000000 -9.197449
v -11.000000 9.250000 -9.197445
v -11.000000 10.999994 -9.197462
v 2.638280 9.250000 -40.295097
v -2.679950 9.250000 -40.295097
v 2.638280 9.250000 -39.295097
v -2.679950 9.250000 -39.295097
vn -0.2977 -0.9546 -0.0000
vn 0.8873 -0.4613 -0.0000
vn 1.0000 -0.0000 -0.0000
vn -0.4816 -0.8764 -0.0000
vn 0.7816 -0.6238 -0.0000
vn -0.6449 -0.7643 -0.0000
vn 0.6449 -0.7643 -0.0000
vn -0.7816 -0.6238 -0.0000
vn 0.4816 -0.8764 -0.0000
vn -0.8873 -0.4613 -0.0000
vn 0.2977 -0.9546 -0.0000
vn -0.9591 -0.2830 -0.0000
vn 0.1008 -0.9949 -0.0000
vn 0.9954 -0.0954 -0.0000
vn -0.9954 -0.0954 -0.0000
vn -0.1008 -0.9949 -0.0000
vn 0.9591 -0.2830 -0.0000
vn -1.0000 -0.0000 -0.0000
vn -0.0000 1.0000 -0.0000
vn -0.0000 -0.0000 -1.0000
vn -0.0000 -1.0000 -0.0000
vn -0.0000 -0.0000 1.0000
vn -0.0000 0.0010 -1.0000
vt 0.000000 0.000000
vt 0.000000 0.000000
vt 0.000000 0.000000
vt 0.000000 0.000000
vt 0.000000 0.000000
vt 0.000000 0.000000
vt 0.000000 0.000000
vt 0.000000 0.000000
vt 0.000000 0.000000
vt 0.000000 0.000000
vt 0.000000 0.000000
vt 0.000000 0.000000
vt 0.000000 0.000000
vt 0.000000 0.000000
vt 0.000000 0.000000
vt 0.000000 0.000000
vt 0.000000 0.000000
vt 0.000000 0.000000
vt 0.000000 0.000000
vt 0.000000 0.000000
vt 0.000000 0.000000
vt 0.000000 0.000000
vt 0.000000 0.000000
vt 0.000000 0.000000
vt 0.000000 0.000000
vt 0.000000 0.000000
vt 0.000000 0.000000
vt 0.000000 0.000000
vt 0.000000 0.000000
vt 0.000000 0.000000
vt 0.000000 0.000000
vt 0.000000 0.000000
vt 0.000000 0.000000
vt 0.000000 0.000000
vt 0.000000 0.000000
vt 0.000000 0.000000
vt 0.000000 0.000000
vt 0.000000 0.000000
vt 0.000000 0.000000
vt 1.000000 0.000000
vt 0.000000 1.000000
vt 1.000000 1.000000
vt 0.000000 0.000000
vt 0.000000 0.000000
vt 0.000000 1.000000
vt 0.000000 0.000000
vt 1.000000 0.000000
vt 1.000000 1.000000
vt 0.000000 0.000000
vt 0.000000 0.000000
vt 0.000000 0.000000
vt 0.000000 0.000000
vt 0.000000 0.000000
vt 0.000000 0.000000
vt 0.000000 0.000000
vt 0.000000 0.000000
vt 0.000000 0.000000
vt 0.000000 0.000000
vt 0.000000 0.000000
vt 0.000000 0.000000
vt 0.000000 0.000000
vt 0.000000 0.000000
vt 0.000000 0.000000
vt 0.000000 0.000000
vt 0.000000 0.000000
vt 0.000000 0.000000
vt 0.000000 0.000000
vt 0.000000 0.000000
vt 0.000000 0.000000
vt 1.000000 0.750000
vt 0.000000 0.000000
vt 0.000000 0.750000
vt 0.000000 0.000000
vt 0.000000 0.250000
vt 0.000000 0.000000
vt 1.000000 0.250000
vt 0.000000 0.000000
vt 0.000000 0.000000
vt 0.000000 0.000000
vt 0.000000 0.000000
vt 0.000000 0.000000
vt 0.000000 0.000000
vt 0.000000 0.000000
vt 0.000000 0.000000
vt 0.000000 0.000000
vt 0.750000 1.000000
vt 0.250000 1.000000
vt 0.000000 0.000000
vt 0.000000 0.000000
vt 1.000000 0.000000
vt 0.000000 0.000000
vt 1.000000 1.000000
vt 0.000000 1.000000
vt 1.000000 0.750000
vt 0.000000 0.750000
vt 0.000000 0.250000
vt 1.000000 0.250000
vt 0.750000 1.000000
vt 0.250000 1.000000
vt 0.000000 0.000000
vt 0.000000 0.000000
vt 0.000000 0.000000
vt 0.000000 0.000000
vt 0.000000 0.000000
vt 0.000000 0.000000
vt 0.000000 0.000000
vt 0.000000 0.000000
vt 0.000000 0.000000
vt 0.000000 0.000000
vt 0.000000 0.000000
vt 0.000000 0.000000
vt 0.000000 0.000000
vt 0.000000 0.000000
vt 0.000000 0.000000
vt 0.000000 0.000000
vt 0.000000 0.000000
vt 0.000000 0.000000
vt 0.000000 0.000000
vt 0.000000 0.000000
vt 0.000000 0.000000
vt 0.000000 0.000000
vt 0.000000 0.000000
vt 0.000000 0.000000
vt 0.000000 0.000000
vt 0.000000 0.000000
vt 0.000000 0.000000
vt 0.000000 0.000000
vt 0.750000 1.000000
vt 0.250000 1.000000
s 0
usemtl Material.001
f 113/88/19 112/87/19 131/106/19 132/107/19
f 106/81/20 105/80/20 124/99/20 125/100/20
f 103/78/21 121/96/21 140/115/21 122/97/21
f 114/89/22 113/88/22 132/107/22 133/108/22
f 107/82/23 106/81/23 125/100/23 126/101/23
f 115/90/24 114/89/24 133/108/24 134/109/24
f 108/83/25 107/82/25 126/101/25 127/102/25
f 116/91/26 115/90/26 134/109/26 135/110/26
f 109/84/27 108/83/27 127/102/27 128/103/27
f 117/92/28 116/91/28 135/110/28 136/111/28
f 110/85/29 109/84/29 128/103/29 129/104/29
f 118/93/30 117/92/30 136/111/30 137/112/30
f 111/86/31 110/85/31 129/104/31 130/105/31
f 104/79/32 103/78/32 122/97/32 123/98/32
f 119/94/33 118/93/33 137/112/33 138/113/33
f 112/87/34 111/86/34 130/105/34 131/106/34
f 105/80/35 104/79/35 123/98/35 124/99/35
f 120/95/36 119/94/36 138/113/36 139/114/36
f 121/96/37 120/95/37 139/114/37 140/115/37
f 201/176/21 189/164/21 190/165/21 191/166/21
f 178/153/38 199/174/38 184/159/38 179/154/38
f 187/162/36 186/161/36 188/163/36 200/175/36
f 199/174/39 196/171/39 183/158/39 184/159/39
f 193/168/21 198/173/21 197/172/21 195/170/21 147/122/21 148/123/21
f 194/169/36 192/167/36 149/124/36 150/125/36
f 172/147/40 173/148/40 183/158/40 196/171/40
f 202/177/21 179/154/21 184/159/21 203/178/21
f 145/120/36 175/150/36 182/157/36 180/155/36
f 190/165/38 145/120/38 180/155/38 191/166/38
f 173/148/21 146/121/21 181/156/21 183/158/21
f 181/156/38 187/162/38 191/166/38 180/155/38 151/126/38 152/127/38
f 146/121/38 186/161/38 187/162/38 181/156/38
f 185/160/39 182/157/39 197/172/39 198/173/39
f 143/118/40 189/164/40 201/176/40 195/170/40
f 141/116/21 176/151/21 198/173/21 193/168/21
f 144/119/36 172/147/36 196/171/36 194/169/36
f 182/157/40 175/150/40 174/149/40 197/172/40
f 185/160/38 198/173/38 176/151/38 177/152/38
f 149/124/38 192/167/38 193/168/38 148/123/38
f 188/163/40 144/119/40 194/169/40 200/175/40
f 174/149/21 143/118/21 195/170/21 197/172/21
f 178/153/36 142/117/36 192/167/36 199/174/36
f 195/170/40 201/176/40 200/175/40 194/169/40 150/125/40 147/122/40
f 203/178/38 206/181/38 205/180/38 202/177/38
f 206/181/38 203/178/38 204/179/38 207/182/38
f 206/181/36 209/184/36 208/183/36 205/180/36
f 206/181/36 207/182/36 210/185/36 209/184/36
f 177/152/36 211/186/36 212/187/36 185/160/36
f 212/187/38 214/189/38 216/191/38 215/190/38
f 214/189/21 218/193/21 219/194/21 216/191/21
f 214/189/21 213/188/21 217/192/21 218/193/21
f 209/184/40 210/185/40 219/194/40 218/193/40
f 209/184/40 218/193/40 217/192/40 208/183/40
f 212/187/38 211/186/38 213/188/38 214/189/38
f 192/167/41 142/117/41 170/145/41 169/144/41 168/143/41 167/142/41 166/141/41 165/140/41 164/139/41 163/138/41 162/137/41 161/136/41 160/135/41 159/134/41 158/133/41 157/132/41 156/131/41 155/130/41 154/129/41 153/128/41 171/146/41 141/116/41 193/168/41
f 222/197/21 220/195/21 227/202/21 226/201/21
f 221/196/36 223/198/36 224/199/36 225/200/36
f 231/206/39 229/204/39 228/203/39 230/205/39
o ExteriorWalls
v -1.582050 0.500000 11.000000
v 1.582050 0.500000 11.000000
v -10.700814 1.299186 10.999823
v 10.700814 1.299186 10.999823
v -11.000000 11.000000 11.000000
v 11.000000 11.000000 11.000000
v 1.582050 1.000000 10.999999
v -1.582050 1.000000 10.999999
v -11.000000 0.000000 11.000000
v 11.000000 0.000000 11.000000
v -1.582050 0.000000 11.000000
v 1.582050 0.000000 11.000000
v -10.700814 8.950814 11.000177
v 10.700814 8.950814 11.000177
v 11.000000 1.000000 -9.197449
v 11.000000 0.000000 -9.197445
v 11.000000 9.250000 -9.197449
v 11.000000 1.000000 -8.197449
v 11.000000 9.250000 -8.197449
v 11.000000 0.000000 -8.197445
v 27.007530 9.250000 -8.197449
v 27.007530 0.000000 -8.197445
v 11.000000 11.000000 -8.197449
v 27.007530 11.000000 -8.197449
v 27.007530 1.000000 -8.197449
v 27.007530 1.000000 -56.000004
v 27.007530 9.250000 -56.000004
v 27.007530 0.000000 -56.000004
v 27.007530 11.000000 -56.000004
v -11.000000 1.000000 -9.197361
v -11.000000 9.250000 -9.197445
v -11.000000 1.000010 -8.197361
v -11.000000 9.250010 -8.197445
v -11.000000 0.000010 -8.197445
v -27.000000 1.000010 -8.197361
v -27.000000 9.250010 -8.197445
v -27.000000 0.000010 -8.197445
v -11.000000 11.000005 -8.197462
v -27.000000 11.000005 -8.197462
v -27.000000 1.000010 -55.999943
v -27.000000 9.250010 -56.000019
v -27.000000 0.000010 -56.000019
v -27.000000 11.000005 -56.000042
v 11.000000 1.000000 11.000000
v 11.000000 9.250000 11.000000
v -1.846734 6.619898 11.007526
v -1.881234 6.259745 10.999990
v -1.740403 6.980292 11.014763
v -1.567436 7.313000 11.021433
v -1.334129 7.605289 11.027278
v -1.049124 7.845771 11.032076
v -0.723186 8.024895 11.035639
v -0.368862 8.135403 11.037834
v 0.000000 8.172756 11.038576
v 0.368862 8.135403 11.037834
v 0.723186 8.024894 11.035639
v 1.049124 7.845771 11.032076
v 1.334129 7.605289 11.027278
v 1.567436 7.313000 11.021433
v 1.740403 6.980291 11.014763
v 1.846734 6.619898 11.007526
v 1.881234 6.259745 10.999990
v 1.881236 1.000000 10.999821
v -1.881236 1.000000 10.999821
v -11.000000 1.000000 11.000000
v -11.000000 9.250000 11.000000
v 1.881219 0.999999 11.053758
v -1.881252 0.999999 11.053758
v 1.582033 0.999999 11.053935
v -1.582067 0.999999 11.053935
v -11.000000 1.000000 11.077557
v -1.582050 1.000000 11.077556
v 11.000000 1.000000 11.077557
v 1.582050 1.000000 11.077556
v -11.000000 0.000000 11.077557
v 11.000000 0.000000 11.077557
v -1.582050 0.500000 11.077557
v 1.582050 0.500000 11.077557
v -1.582050 0.000000 11.077557
v 1.582050 0.000000 11.077557
v -11.069426 0.000000 11.000000
v -11.069426 0.000010 -8.197445
v -11.069426 1.000000 11.000000
v -11.069426 1.000010 -8.197361
v -11.069426 0.000000 11.077557
v -11.069426 1.000000 11.077557
v 11.057114 1.000000 11.000000
v 11.057114 0.000000 11.000000
v 11.057114 1.000000 -9.197449
v 11.057114 0.000000 -9.197445
v 11.057114 1.000000 11.077557
v 11.057114 0.000000 11.077557
vn -0.0000 -0.0000 1.0000
vn -0.0000 -0.0000 -1.0000
vn -1.0000 -0.0000 -0.0000
vn 1.0000 -0.0000 -0.0000
vn -0.0000 -0.0001 1.0000
vn -0.0000 1.0000 -0.0000
vn -0.0000 0.0007 1.0000
vn -0.0000 -1.0000 -0.0000
vn -0.0000 0.0012 1.0000
vn -0.0000 0.0006 1.0000
vn -0.0000 0.0001 -1.0000
vt 0.000000 0.000000
vt 0.000000 0.000000
vt 0.000000 0.000000
vt 0.000000 0.000000
vt 0.000000 0.000000
vt 0.000000 0.000000
vt 0.000000 0.000000
vt 0.000000 0.000000
vt 0.000000 0.000000
vt 0.000000 0.000000
vt 0.000000 0.000000
vt 0.000000 0.000000
vt 0.000000 0.000000
vt 0.000000 0.000000
vt 0.000000 0.000000
vt 0.000000 0.000000
vt 0.000000 0.000000
vt 0.000000 0.000000
vt 0.000000 0.000000
vt 0.000000 0.000000
vt 0.000000 0.000000
vt 0.000000 0.000000
vt 0.000000 0.000000
vt 0.000000 0.000000
vt 0.000000 0.000000
vt 0.000000 0.000000
vt 0.000000 0.000000
vt 0.000000 0.000000
vt 0.000000 0.000000
vt 0.000000 0.000000
vt 0.000000 0.000000
vt 0.000000 0.000000
vt 0.000000 0.000000
vt 0.000000 0.000000
vt 0.000000 0.000000
vt 0.000000 0.000000
vt 0.000000 0.000000
vt 0.000000 0.000000
vt 0.000000 0.000000
vt 0.000000 0.000000
vt 0.000000 0.000000
vt 0.000000 0.000000
vt 0.000000 0.000000
vt 0.000000 0.000000
vt 0.000000 0.000000
vt 0.000000 0.000000
vt 0.000000 0.000000
vt 0.000000 0.000000
vt 0.000000 0.000000
vt 0.000000 0.000000
vt 0.000000 0.000000
vt 0.000000 0.000000
vt 0.000000 0.000000
vt 0.000000 0.000000
vt 0.000000 0.000000
vt 0.000000 0.000000
vt 0.000000 0.000000
vt 0.000000 0.000000
vt 0.000000 0.000000
vt 0.000000 0.000000
vt 0.000000 0.000000
vt 0.000000 0.000000
vt 0.000000 0.000000
vt 0.000000 0.000000
vt 0.000000 0.000000
vt 0.000000 0.000000
vt 0.000000 0.000000
vt 0.000000 0.000000
vt 0.000000 0.000000
vt 0.000000 0.000000
vt 0.000000 0.000000
vt 0.000000 0.000000
vt 0.000000 0.000000
vt 0.000000 0.000000
vt 0.000000 0.000000
vt 0.000000 0.000000
vt 0.000000 0.000000
vt 0.000000 0.000000
vt 0.000000 0.000000
vt 0.000000 0.000000
vt 0.000000 0.000000
vt 0.000000 0.000000
vt 0.000000 0.000000
vt 0.000000 0.000000
vt 0.000000 0.000000
vt 0.000000 0.000000
vt 0.000000 0.000000
vt 0.000000 0.000000
vt 0.000000 0.000000
vt 0.000000 0.000000
vt 0.000000 0.000000
vt 0.000000 0.000000
s 0
usemtl Material.001
f 297/272/42 276/251/42 237/212/42 236/211/42
f 247/222/43 246/221/43 320/295/43 321/296/43
f 261/236/44 296/271/44 297/272/44 262/237/44
f 275/250/45 246/221/45 248/223/45 276/251/45
f 253/228/42 256/231/42 249/224/42 251/226/42
f 250/225/42 249/224/42 256/231/42 252/227/42
f 250/225/42 252/227/42 255/230/42 254/229/42
f 255/230/45 252/227/45 258/233/45 260/235/45
f 256/231/45 253/228/45 259/234/45 257/232/45
f 252/227/45 256/231/45 257/232/45 258/233/45
f 265/240/46 263/238/46 266/241/46 268/243/46
f 264/239/42 267/242/42 266/241/42 263/238/42
f 267/242/42 264/239/42 269/244/42 270/245/42
f 270/245/44 274/249/44 272/247/44 267/242/44
f 268/243/44 266/241/44 271/246/44 273/248/44
f 267/242/44 272/247/44 271/246/44 266/241/44
f 258/233/43 257/232/43 271/246/43 272/247/43
f 259/234/43 273/248/43 271/246/43 257/232/43
f 258/233/43 272/247/43 274/249/43 260/235/43
f 302/277/47 296/271/47 314/289/47 317/292/47
f 275/250/47 238/213/47 305/280/47 304/279/47
f 245/220/48 244/219/48 234/209/48 295/270/48 278/253/48 277/252/48 279/254/48 280/255/48 281/256/48 282/257/48 283/258/48 284/259/48 285/260/48 286/261/48 287/262/48 288/263/48 289/264/48 290/265/48 291/266/48 292/267/48 293/268/48 294/269/48 235/210/48
f 236/211/44 269/244/44 264/239/44 297/272/44
f 237/212/45 276/251/45 250/225/45 254/229/45
f 245/220/42 235/210/42 275/250/42 276/251/42
f 238/213/49 294/269/49 298/273/49 300/275/49
f 295/270/50 234/209/50 296/271/50 239/214/50
f 235/210/50 294/269/50 238/213/50 275/250/50
f 234/209/42 244/219/42 297/272/42 296/271/42
f 244/219/51 245/220/51 276/251/51 297/272/51
f 295/270/49 239/214/49 301/276/49 299/274/49
f 302/277/42 306/281/42 310/285/42 308/283/42 309/284/42 311/286/42 307/282/42 304/279/42 305/280/42 303/278/42
f 233/208/44 243/218/44 311/286/44 309/284/44
f 232/207/49 233/208/49 309/284/49 308/283/49
f 240/215/49 242/217/49 310/285/49 306/281/49
f 238/213/47 239/214/47 303/278/47 305/280/47
f 306/281/42 302/277/42 317/292/42 316/291/42
f 243/218/49 241/216/49 307/282/49 311/286/49
f 239/214/47 296/271/47 302/277/47 303/278/47
f 242/217/45 232/207/45 308/283/45 310/285/45
f 307/282/49 241/216/49 319/294/49 323/298/49
f 313/288/44 312/287/44 314/289/44 315/290/44
f 314/289/44 312/287/44 316/291/44 317/292/44
f 263/238/52 265/240/52 313/288/52 315/290/52
f 240/215/49 306/281/49 316/291/49 312/287/49
f 296/271/47 263/238/47 315/290/47 314/289/47
f 265/240/49 240/215/49 312/287/49 313/288/49
f 320/295/45 318/293/45 319/294/45 321/296/45
f 319/294/45 318/293/45 322/297/45 323/298/45
f 241/216/49 247/222/49 321/296/49 319/294/49
f 275/250/47 304/279/47 322/297/47 318/293/47
f 246/221/47 275/250/47 318/293/47 320/295/47
f 304/279/42 307/282/42 323/298/42 322/297/42
o CeilingExterior
v -11.000000 11.000000 11.000000
v 11.000000 11.000000 11.000000
v 11.000000 11.000000 -8.197449
v 27.007530 11.000000 -8.197449
v 27.007530 11.000000 -56.000004
v -11.000000 11.000005 -8.197462
v -27.000000 11.000005 -8.197462
v -27.000000 11.000005 -56.000042
v -4.527918 15.826419 -3.852116
v 4.529379 15.826419 -3.852116
v 15.871687 15.826419 -17.021717
v 4.529379 15.826419 -17.021717
v 15.871687 15.826419 -43.283604
v -15.864887 15.826421 -17.021725
v -4.527918 15.826421 -17.021725
v -15.864887 15.826421 -43.283634
v -11.772202 11.367785 12.268997
v 11.771850 11.367785 12.268997
v 28.902855 11.367785 -7.621887
v 11.771850 11.367785 -7.621887
v 28.902855 11.367785 -57.151119
v -28.895149 11.367790 -7.621901
v -11.772202 11.367790 -7.621901
v -28.895149 11.367790 -57.151165
vn -0.0000 1.0000 -0.0000
vn -0.4300 -0.9028 -0.0000
vn -0.1905 -0.9817 -0.0000
vn 0.1905 -0.9817 -0.0000
vn -0.0000 -0.9605 0.2784
vn 0.4302 -0.9028 -0.0000
vn -0.0000 -0.9526 -0.3043
vn -0.0000 -0.8427 0.5385
vn -0.0000 0.9638 0.2666
vn -0.0000 0.9035 0.4286
vn 0.3237 0.9462 -0.0000
vn -0.3237 0.9461 -0.0000
vn -0.0000 0.9520 -0.3061
vn -0.5241 0.8516 -0.0000
vn 0.5242 0.8516 -0.0000
vt 0.000000 0.000000
vt 0.000000 0.000000
vt 0.000000 0.000000
vt 0.000000 0.000000
vt 0.000000 0.000000
vt 0.000000 0.000000
vt 0.000000 0.000000
vt 0.000000 0.000000
vt 0.000000 0.000000
vt 0.000000 0.000000
vt 0.000000 0.000000
vt 0.000000 0.000000
vt 0.000000 0.000000
vt 0.000000 0.000000
vt 0.000000 0.000000
vt 0.000000 0.000000
vt 0.000000 0.000000
vt 0.000000 0.000000
vt 0.000000 0.000000
vt 0.000000 0.000000
vt 0.000000 0.000000
vt 0.000000 0.000000
vt 0.000000 0.000000
vt 0.000000 0.000000
s 0
usemtl Material.001
f 335/310/53 334/309/53 336/311/53 339/314/53 337/312/53 338/313/53
f 332/307/53 333/308/53 335/310/53 338/313/53
f 329/304/54 324/299/54 340/315/54 346/321/54
f 331/306/55 330/305/55 345/320/55 347/322/55
f 327/302/56 328/303/56 344/319/56 342/317/56
f 324/299/57 325/300/57 341/316/57 340/315/57
f 325/300/58 326/301/58 343/318/58 341/316/58
f 328/303/59 331/306/59 347/322/59 344/319/59
f 330/305/60 329/304/60 346/321/60 345/320/60
f 326/301/60 327/302/60 342/317/60 343/318/60
f 333/308/61 332/307/61 340/315/61 341/316/61
f 334/309/62 335/310/62 343/318/62 342/317/62
f 336/311/63 334/309/63 342/317/63 344/319/63
f 338/313/62 337/312/62 345/320/62 346/321/62
f 337/312/64 339/314/64 347/322/64 345/320/64
f 339/314/65 336/311/65 344/319/65 347/322/65
f 332/307/66 338/313/66 346/321/66 340/315/66
f 335/310/67 333/308/67 341/316/67 343/318/67
o CeilingInterior
v -11.000000 11.000000 11.000000
v 11.000000 11.000000 11.000000
v 11.000000 11.000000 -8.197449
v 27.007530 11.000000 -8.197449
v 27.007530 11.000000 -56.000004
v -11.000000 11.000005 -8.197462
v -27.000000 11.000005 -8.197462
v -27.000000 11.000005 -56.000042
vn -0.0000 -1.0000 -0.0000
vt 0.000000 0.000000
vt 0.000000 0.000000
vt 0.000000 0.000000
vt 0.000000 0.000000
vt 0.000000 0.000000
vt 0.000000 0.000000
vt 0.000000 0.000000
vt 0.000000 0.000000
s 0
usemtl Material.001
f 350/325/68 353/328/68 354/329/68 355/330/68 352/327/68 351/326/68
f 348/323/68 353/328/68 350/325/68 349/324/68
o MainDoorFrame
v -1.582049 6.245447 10.999999
v -1.551650 6.562779 11.007560
v -1.461622 6.867918 11.014830
v -1.315425 7.149134 11.021530
v -1.118677 7.395622 11.027403
v -0.878939 7.597909 11.032223
v -0.605424 7.748223 11.035804
v -0.308642 7.840785 11.038010
v 0.000000 7.872040 11.038754
v 0.308642 7.840785 11.038010
v 0.605424 7.748223 11.035804
v 0.878939 7.597909 11.032223
v 1.118677 7.395622 11.027403
v 1.315425 7.149134 11.021530
v 1.461622 6.867918 11.014830
v 1.551650 6.562779 11.007560
v 1.582049 6.245447 10.999999
v 1.582050 1.000000 10.999999
v -1.582050 1.000000 10.999999
v -1.846734 6.619898 11.007526
v -1.881234 6.259745 10.999990
v -1.740403 6.980292 11.014763
v -1.567436 7.313000 11.021433
v -1.334129 7.605289 11.027278
v -1.049124 7.845771 11.032076
v -0.723186 8.024895 11.035639
v -0.368862 8.135403 11.037834
v 0.000000 8.172756 11.038576
v 0.368862 8.135403 11.037834
v 0.723186 8.024894 11.035639
v 1.049124 7.845771 11.032076
v 1.334129 7.605289 11.027278
v 1.567436 7.313000 11.021433
v 1.740403 6.980291 11.014763
v 1.846734 6.619898 11.007526
v 1.881234 6.259745 10.999990
v 1.881236 1.000000 10.999821
v -1.881236 1.000000 10.999821
v -1.846750 6.619897 11.061462
v -1.881251 6.259744 11.053926
v -1.740420 6.980291 11.068699
v -1.567453 7.312999 11.075369
v -1.334146 7.605288 11.081215
v -1.049141 7.845770 11.086012
v -0.723202 8.024893 11.089576
v -0.368878 8.135402 11.091770
v -0.000017 8.172754 11.092512
v 0.368845 8.135402 11.091770
v 0.723169 8.024893 11.089576
v 1.049107 7.845770 11.086012
v 1.334113 7.605288 11.081215
v 1.567419 7.312999 11.075369
v 1.740387 6.980290 11.068699
v 1.846717 6.619897 11.061462
v 1.881217 6.259744 11.053926
v 1.881219 0.999999 11.053758
v -1.881252 0.999999 11.053758
v -1.551667 6.562778 11.061496
v -1.582065 6.245446 11.053935
v -1.461639 6.867918 11.068766
v -1.315442 7.149133 11.075466
v -1.118694 7.395621 11.081339
v -0.878956 7.597908 11.086159
v -0.605440 7.748222 11.089740
v -0.308659 7.840784 11.091946
v -0.000017 7.872039 11.092690
v 0.308626 7.840784 11.091946
v 0.605407 7.748222 11.089740
v 0.878922 7.597908 11.086159
v 1.118660 7.395621 11.081339
v 1.315408 7.149133 11.075466
v 1.461605 6.867918 11.068766
v 1.551633 6.562778 11.061496
v 1.582032 6.245446 11.053935
v 1.582033 0.999999 11.053935
v -1.582067 0.999999 11.053935
vn -1.0000 -0.0000 -0.0003
vn 0.9591 -0.2830 0.0003
vn -0.9591 -0.2830 -0.0003
vn -0.7815 0.6238 -0.0002
vn 0.9954 -0.0954 0.0003
vn 1.0000 -0.0000 0.0003
vn -0.8873 -0.4613 -0.0003
vn -0.8873 0.4613 -0.0003
vn 0.9954 0.0954 0.0003
vn -0.7816 -0.6238 -0.0003
vn -0.9591 0.2830 -0.0003
vn 0.9591 0.2830 0.0003
vn -0.6449 -0.7643 -0.0002
vn -0.9954 0.0954 -0.0003
vn 0.8873 0.4613 0.0003
vn -0.4816 -0.8764 -0.0002
vn 0.7816 0.6238 0.0003
vn -0.0027 -0.0220 0.9998
vn -0.0061 -0.0200 0.9998
vn -0.0092 -0.0170 0.9998
vn -0.0109 -0.0130 0.9999
vn -0.0110 -0.0087 0.9999
vn -0.0094 -0.0046 0.9999
vn -0.0063 -0.0014 1.0000
vn -0.0022 0.0004 1.0000
vn 0.0022 0.0004 1.0000
vn 0.0063 -0.0014 1.0000
vn 0.0094 -0.0046 0.9999
vn 0.0110 -0.0087 0.9999
vn 0.0109 -0.0130 0.9999
vn 0.0092 -0.0170 0.9998
vn 0.0061 -0.0200 0.9998
vn 0.0027 -0.0220 0.9998
vn 0.0003 -0.0000 1.0000
vn -0.0003 -0.0000 1.0000
vn -0.6449 0.7643 -0.0002
vn -0.9954 -0.0954 -0.0003
vn 0.8873 -0.4613 0.0003
vn -0.4816 0.8764 -0.0001
vn 0.7816 -0.6238 0.0002
vn -0.2977 0.9546 -0.0001
vn 0.6449 -0.7643 0.0002
vn -0.1007 0.9949 -0.0000
vn 0.4816 -0.8764 0.0001
vn 0.1007 0.9949 -0.0000
vn 0.2977 -0.9546 0.0001
vn 0.2977 0.9546 0.0001
vn 0.1007 -0.9949 -0.0000
vn 0.4816 0.8764 0.0002
vn -0.1007 -0.9949 -0.0000
vn 0.6449 0.7643 0.0002
vn -0.2977 -0.9546 -0.0001
vt 0.000000 0.000000
vt 0.000000 0.000000
vt 0.000000 0.000000
vt 0.000000 0.000000
vt 0.000000 0.000000
vt 0.000000 0.000000
vt 0.000000 0.000000
vt 0.000000 0.000000
vt 0.000000 0.000000
vt 0.000000 0.000000
vt 0.000000 0.000000
vt 0.000000 0.000000
vt 0.000000 0.000000
vt 0.000000 0.000000
vt 0.000000 0.000000
vt 0.000000 0.000000
vt 0.000000 0.000000
vt 0.000000 0.000000
vt 0.000000 0.000000
vt 0.000000 0.000000
vt 0.000000 0.000000
vt 0.000000 0.000000
vt 0.000000 0.000000
vt 0.000000 0.000000
vt 0.000000 0.000000
vt 0.000000 0.000000
vt 0.000000 0.000000
vt 0.000000 0.000000
vt 0.000000 0.000000
vt 0.000000 0.000000
vt 0.000000 0.000000
vt 0.000000 0.000000
vt 0.000000 0.000000
vt 0.000000 0.000000
vt 0.000000 0.000000
vt 0.000000 0.000000
vt 0.000000 0.000000
vt 0.000000 0.000000
vt 0.000000 0.000000
vt 0.000000 0.000000
vt 0.000000 0.000000
vt 0.000000 0.000000
vt 0.000000 0.000000
vt 0.000000 0.000000
vt 0.000000 0.000000
vt 0.000000 0.000000
vt 0.000000 0.000000
vt 0.000000 0.000000
vt 0.000000 0.000000
vt 0.000000 0.000000
vt 0.000000 0.000000
vt 0.000000 0.000000
vt 0.000000 0.000000
vt 0.000000 0.000000
vt 0.000000 0.000000
vt 0.000000 0.000000
vt 0.000000 0.000000
vt 0.000000 0.000000
vt 0.000000 0.000000
vt 0.000000 0.000000
vt 0.000000 0.000000
vt 0.000000 0.000000
vt 0.000000 0.000000
vt 0.000000 0.000000
vt 0.000000 0.000000
vt 0.000000 0.000000
vt 0.000000 0.000000
vt 0.000000 0.000000
vt 0.000000 0.000000
vt 0.000000 0.000000
vt 0.000000 0.000000
vt 0.000000 0.000000
vt 0.000000 0.000000
vt 0.000000 0.000000
vt 0.000000 0.000000
vt 0.000000 0.000000
s 0
usemtl Material.001
f 376/351/69 393/368/69 412/387/69 395/370/69
f 357/332/70 358/333/70 415/390/70 413/388/70
f 370/345/71 371/346/71 428/403/71 427/402/71
f 379/354/72 378/353/72 397/372/72 398/373/72
f 356/331/73 357/332/73 413/388/73 414/389/73
f 392/367/74 391/366/74 410/385/74 411/386/74
f 369/344/75 370/345/75 427/402/75 426/401/75
f 378/353/76 377/352/76 396/371/76 397/372/76
f 391/366/77 390/365/77 409/384/77 410/385/77
f 368/343/78 369/344/78 426/401/78 425/400/78
f 377/352/79 375/350/79 394/369/79 396/371/79
f 390/365/80 389/364/80 408/383/80 409/384/80
f 367/342/81 368/343/81 425/400/81 424/399/81
f 375/350/82 376/351/82 395/370/82 394/369/82
f 389/364/83 388/363/83 407/382/83 408/383/83
f 366/341/84 367/342/84 424/399/84 423/398/84
f 388/363/85 387/362/85 406/381/85 407/382/85
f 394/369/86 395/370/86 414/389/86 413/388/86
f 396/371/87 394/369/87 413/388/87 415/390/87
f 397/372/88 396/371/88 415/390/88 416/391/88
f 398/373/89 397/372/89 416/391/89 417/392/89
f 399/374/90 398/373/90 417/392/90 418/393/90
f 400/375/91 399/374/91 418/393/91 419/394/91
f 401/376/92 400/375/92 419/394/92 420/395/92
f 402/377/93 401/376/93 420/395/93 421/396/93
f 403/378/94 402/377/94 421/396/94 422/397/94
f 404/379/95 403/378/95 422/397/95 423/398/95
f 405/380/96 404/379/96 423/398/96 424/399/96
f 406/381/97 405/380/97 424/399/97 425/400/97
f 407/382/98 406/381/98 425/400/98 426/401/98
f 408/383/99 407/382/99 426/401/99 427/402/99
f 409/384/100 408/383/100 427/402/100 428/403/100
f 410/385/101 409/384/101 428/403/101 429/404/101
f 411/386/102 410/385/102 429/404/102 430/405/102
f 395/370/103 412/387/103 431/406/103 414/389/103
f 380/355/104 379/354/104 398/373/104 399/374/104
f 371/346/105 372/347/105 429/404/105 428/403/105
f 358/333/106 359/334/106 416/391/106 415/390/106
f 381/356/107 380/355/107 399/374/107 400/375/107
f 372/347/69 373/348/69 430/405/69 429/404/69
f 359/334/108 360/335/108 417/392/108 416/391/108
f 382/357/109 381/356/109 400/375/109 401/376/109
f 374/349/74 356/331/74 414/389/74 431/406/74
f 360/335/110 361/336/110 418/393/110 417/392/110
f 383/358/111 382/357/111 401/376/111 402/377/111
f 361/336/112 362/337/112 419/394/112 418/393/112
f 384/359/113 383/358/113 402/377/113 403/378/113
f 362/337/114 363/338/114 420/395/114 419/394/114
f 385/360/115 384/359/115 403/378/115 404/379/115
f 363/338/116 364/339/116 421/396/116 420/395/116
f 386/361/117 385/360/117 404/379/117 405/380/117
f 364/339/118 365/340/118 422/397/118 421/396/118
f 387/362/119 386/361/119 405/380/119 406/381/119
f 365/340/120 366/341/120 423/398/120 422/397/120
o CarpetRidge
v -1.391477 0.500000 11.287407
v -1.310920 0.500000 11.552968
v -1.179797 0.500000 11.798282
v -1.003335 0.500000 12.013302
v -0.788315 0.500000 12.189763
v -0.543001 0.500000 12.320887
v -0.276819 0.500000 12.401632
v -0.000000 0.500000 12.428896
v 0.276819 0.500000 12.401632
v 0.543001 0.500000 12.320887
v 0.788315 0.500000 12.189763
v 1.003335 0.500000 12.013302
v 1.179797 0.500000 11.798282
v 1.310920 0.500000 11.552968
v 1.391477 0.500000 11.287407
v -1.402667 0.500000 11.163870
v 1.402667 0.500000 11.163870
v -1.323767 0.505241 11.235945
v 1.323767 0.505241 11.235945
v -1.320361 0.505241 11.273551
v -1.244008 0.505241 11.525252
v -1.119578 0.505241 11.758045
v -0.952123 0.505241 11.962090
v -0.748078 0.505241 12.129544
v -0.515285 0.505241 12.253975
v -0.262690 0.505241 12.330599
v -0.000000 0.505241 12.356472
v 0.262690 0.505241 12.330599
v 0.515285 0.505241 12.253975
v 0.748078 0.505241 12.129544
v 0.952123 0.505241 11.962090
v 1.119578 0.505241 11.758045
v 1.244009 0.505241 11.525252
v 1.320361 0.505241 11.273551
v -1.402667 0.511464 11.163870
v 1.402667 0.511464 11.163870
v -1.391477 0.511464 11.287407
v -1.310920 0.511464 11.552968
v -1.179797 0.511464 11.798282
v -1.003335 0.511464 12.013302
v -0.788315 0.511464 12.189763
v -0.543001 0.511464 12.320887
v -0.276819 0.511464 12.401632
v -0.000000 0.511464 12.428896
v 0.276819 0.511464 12.401632
v 0.543001 0.511464 12.320887
v 0.788315 0.511464 12.189763
v 1.003335 0.511464 12.013302
v 1.179797 0.511464 11.798282
v 1.310920 0.511464 11.552968
v 1.391477 0.511464 11.287407
vn 0.9959 -0.0000 0.0902
vn 0.0980 -0.0000 0.9952
vn -0.9569 -0.0000 0.2903
vn 0.2903 -0.0000 0.9569
vn -0.0000 -0.0000 -1.0000
vn -0.8819 -0.0000 0.4714
vn 0.4714 -0.0000 0.8819
vn -0.7730 -0.0000 0.6344
vn 0.6344 -0.0000 0.7730
vn -0.6344 -0.0000 0.7730
vn 0.7730 -0.0000 0.6344
vn -0.4714 -0.0000 0.8819
vn 0.8819 -0.0000 0.4714
vn -0.2903 -0.0000 0.9569
vn 0.9569 -0.0000 0.2903
vn -0.0980 -0.0000 0.9952
vn -0.9959 -0.0000 0.0902
vn -0.0000 0.9963 0.0860
vn 0.0857 0.9963 -0.0078
vn 0.0823 0.9963 -0.0250
vn 0.0759 0.9963 -0.0405
vn 0.0665 0.9963 -0.0546
vn 0.0546 0.9963 -0.0665
vn 0.0405 0.9963 -0.0759
vn 0.0250 0.9963 -0.0823
vn 0.0084 0.9963 -0.0856
vn -0.0084 0.9963 -0.0856
vn -0.0250 0.9963 -0.0823
vn -0.0405 0.9963 -0.0759
vn -0.0546 0.9963 -0.0665
vn -0.0665 0.9963 -0.0546
vn -0.0759 0.9963 -0.0405
vn -0.0823 0.9963 -0.0250
vn -0.0857 0.9963 -0.0078
vt 0.000000 0.000000
vt 0.000000 0.000000
vt 0.000000 0.000000
vt 0.000000 0.000000
vt 0.000000 0.000000
vt 0.000000 0.000000
vt 0.000000 0.000000
vt 0.000000 0.000000
vt 0.000000 0.000000
vt 0.000000 0.000000
vt 0.000000 0.000000
vt 0.000000 0.000000
vt 0.000000 0.000000
vt 0.000000 0.000000
vt 0.000000 0.000000
vt 0.000000 0.000000
vt 0.000000 0.000000
vt 0.000000 0.000000
vt 0.000000 0.000000
vt 0.000000 0.000000
vt 0.000000 0.000000
vt 0.000000 0.000000
vt 0.000000 0.000000
vt 0.000000 0.000000
vt 0.000000 0.000000
vt 0.000000 0.000000
vt 0.000000 0.000000
vt 0.000000 0.000000
vt 0.000000 0.000000
vt 0.000000 0.000000
vt 0.000000 0.000000
vt 0.000000 0.000000
vt 0.000000 0.000000
vt 0.000000 0.000000
vt 0.000000 0.000000
vt 0.000000 0.000000
vt 0.000000 0.000000
vt 0.000000 0.000000
vt 0.000000 0.000000
vt 0.000000 0.000000
vt 0.000000 0.000000
vt 0.000000 0.000000
vt 0.000000 0.000000
vt 0.000000 0.000000
vt 0.000000 0.000000
vt 0.000000 0.000000
vt 0.000000 0.000000
vt 0.000000 0.000000
vt 0.000000 0.000000
vt 0.000000 0.000000
vt 0.000000 0.000000
s 0
usemtl Material.001
f 446/421/121 448/423/121 467/442/121 482/457/121
f 439/414/122 440/415/122 476/451/122 475/450/122
f 432/407/123 433/408/123 469/444/123 468/443/123
f 440/415/124 441/416/124 477/452/124 476/451/124
f 448/423/125 447/422/125 466/441/125 467/442/125
f 433/408/126 434/409/126 470/445/126 469/444/126
f 441/416/127 442/417/127 478/453/127 477/452/127
f 434/409/128 435/410/128 471/446/128 470/445/128
f 442/417/129 443/418/129 479/454/129 478/453/129
f 435/410/130 436/411/130 472/447/130 471/446/130
f 443/418/131 444/419/131 480/455/131 479/454/131
f 436/411/132 437/412/132 473/448/132 472/447/132
f 444/419/133 445/420/133 481/456/133 480/455/133
f 437/412/134 438/413/134 474/449/134 473/448/134
f 445/420/135 446/421/135 482/457/135 481/456/135
f 438/413/136 439/414/136 475/450/136 474/449/136
f 447/422/137 432/407/137 468/443/137 466/441/137
f 449/424/138 450/425/138 467/442/138 466/441/138
f 451/426/139 449/424/139 466/441/139 468/443/139
f 452/427/140 451/426/140 468/443/140 469/444/140
f 453/428/141 452/427/141 469/444/141 470/445/141
f 454/429/142 453/428/142 470/445/142 471/446/142
f 455/430/143 454/429/143 471/446/143 472/447/143
f 456/431/144 455/430/144 472/447/144 473/448/144
f 457/432/145 456/431/145 473/448/145 474/449/145
f 458/433/146 457/432/146 474/449/146 475/450/146
f 459/434/147 458/433/147 475/450/147 476/451/147
f 460/435/148 459/434/148 476/451/148 477/452/148
f 461/436/149 460/435/149 477/452/149 478/453/149
f 462/437/150 461/436/150 478/453/150 479/454/150
f 463/438/151 462/437/151 479/454/151 480/455/151
f 464/439/152 463/438/152 480/455/152 481/456/152
f 465/440/153 464/439/153 481/456/153 482/457/153
f 450/425/154 465/440/154 482/457/154 467/442/154
o Carpet
v -1.323767 0.505241 11.235945
v 1.323767 0.505241 11.235945
v -1.320361 0.505241 11.273551
v -1.244008 0.505241 11.525252
v -1.119578 0.505241 11.758045
v -0.952123 0.505241 11.962090
v -0.748078 0.505241 12.129544
v -0.515285 0.505241 12.253975
v -0.262690 0.505241 12.330599
v -0.000000 0.505241 12.356472
v 0.262690 0.505241 12.330599
v 0.515285 0.505241 12.253975
v 0.748078 0.505241 12.129544
v 0.952123 0.505241 11.962090
v 1.119578 0.505241 11.758045
v 1.244009 0.505241 11.525252
v 1.320361 0.505241 11.273551
vn -0.0000 1.0000 -0.0000
vt 0.000000 0.000000
vt 0.000000 0.000000
vt 0.000000 0.000000
vt 0.000000 0.000000
vt 0.000000 0.000000
vt 0.000000 0.000000
vt 0.000000 0.000000
vt 0.000000 0.000000
vt 0.000000 0.000000
vt 0.000000 0.000000
vt 0.000000 0.000000
vt 0.000000 0.000000
vt 0.000000 0.000000
vt 0.000000 0.000000
vt 0.000000 0.000000
vt 0.000000 0.000000
vt 0.000000 0.000000
s 0
usemtl Material.001
f 485/460/155 486/461/155 487/462/155 488/463/155 489/464/155 490/465/155 491/466/155 492/467/155 493/468/155 494/469/155 495/470/155 496/471/155 497/472/155 498/473/155 499/474/155 484/459/155 483/458/155
