# Blender 3.4.1
# www.blender.org
mtllib PaintSquidy.mtl
o frame
v -1.124997 0.050000 -1.409723
v -1.124997 0.050000 1.409723
v 1.124997 0.050000 1.409723
v 1.124997 0.050000 -1.409723
v 1.000000 0.050000 -1.253091
v 1.000000 0.050000 1.253091
v -1.000000 0.050000 1.253091
v -1.000000 0.050000 -1.253091
v -1.124997 0.055000 -1.409723
v -1.124997 0.055000 1.409723
v 1.124997 0.055000 1.409723
v 1.124997 0.055000 -1.409723
v -1.000000 0.088162 -1.253091
v -1.000000 0.088162 1.253091
v 1.000000 0.088162 1.253091
v 1.000000 0.088162 -1.253091
v -1.124997 0.055000 -1.409723
v -1.124997 0.055000 1.409723
v 1.124997 0.055000 1.409723
v 1.124997 0.055000 -1.409723
vn -0.0000 -0.0000 -1.0000
vn -0.0000 -0.0000 1.0000
vn -1.0000 -0.0000 -0.0000
vn 1.0000 -0.0000 -0.0000
vn -0.2564 0.9666 -0.0000
vn 0.2564 0.9666 -0.0000
vn -0.0000 0.9783 0.2071
vn -0.0000 0.9783 -0.2071
vt 0.000000 1.000000
vt 0.000000 0.000000
vt 1.000000 0.000000
vt 1.000000 1.000000
vt 1.000000 1.000000
vt 1.000000 0.000000
vt 0.000000 0.000000
vt 0.000000 1.000000
vt 0.000000 1.000000
vt 0.000000 0.000000
vt 1.000000 0.000000
vt 1.000000 1.000000
vt 0.000000 1.000000
vt 0.000000 0.000000
vt 1.000000 0.000000
vt 1.000000 1.000000
vt 0.000000 1.000000
vt 0.000000 0.000000
vt 1.000000 0.000000
vt 1.000000 1.000000
s 0
usemtl metalFrame
f 6/6/1 7/7/1 14/14/1 15/15/1
f 8/8/2 5/5/2 16/16/2 13/13/2
f 1/1/3 2/2/3 10/10/3 9/9/3
f 3/3/4 4/4/4 12/12/4 11/11/4
f 13/13/5 17/17/5 18/18/5 14/14/5
f 15/15/6 19/19/6 20/20/6 16/16/6
f 14/14/7 18/18/7 19/19/7 15/15/7
f 16/16/8 20/20/8 17/17/8 13/13/8
f 4/4/1 1/1/1 9/9/1 12/12/1
f 2/2/2 3/3/2 11/11/2 10/10/2
f 5/5/3 6/6/3 15/15/3 16/16/3
f 7/7/4 8/8/4 13/13/4 14/14/4
o Canvas
v -1.124997 0.023748 -1.409723
v -1.124997 0.023748 1.409723
v 1.124997 0.023748 1.409723
v 1.124997 0.023748 -1.409723
v -1.124997 0.050000 -1.409723
v -1.124997 0.050000 1.409723
v 1.124997 0.050000 1.409723
v 1.124997 0.050000 -1.409723
vn -0.0000 -1.0000 -0.0000
vn 1.0000 -0.0000 -0.0000
vn -1.0000 -0.0000 -0.0000
vn -0.0000 -0.0000 -1.0000
vn -0.0000 -0.0000 1.0000
vt 0.000000 1.000000
vt 0.000000 0.000000
vt 1.000000 0.000000
vt 1.000000 1.000000
vt 0.000000 1.000000
vt 0.000000 0.000000
vt 1.000000 0.000000
vt 1.000000 1.000000
s 0
f 22/22/9 21/21/9 24/24/9 23/23/9
f 23/23/10 24/24/10 28/28/10 27/27/10
f 21/21/11 22/22/11 26/26/11 25/25/11
f 24/24/12 21/21/12 25/25/12 28/28/12
f 22/22/13 23/23/13 27/27/13 26/26/13
o painting.001
v -1.000000 0.050000 -1.253091
v -1.000000 0.050000 1.253091
v 1.000000 0.050000 1.253091
v 1.000000 0.050000 -1.253091
vn -0.0000 1.0000 -0.0000
vt 0.000000 1.000000
vt 0.000000 0.000000
vt 1.000000 0.000000
vt 1.000000 1.000000
s 0
usemtl painting
f 30/30/14 31/31/14 32/32/14 29/29/14
