[gd_resource type="StandardMaterial3D" load_steps=6 format=3 uid="uid://mptpmfeq8jk6"]

[ext_resource type="Texture2D" uid="uid://couwgaad7u78j" path="res://assets/museum/textures/ceiling/ceiling.jpg" id="1_snnfr"]
[ext_resource type="Texture2D" uid="uid://b75l2my8kpi3j" path="res://assets/museum/textures/ceiling/NormalMap.png" id="2_srvv3"]
[ext_resource type="Texture2D" uid="uid://c7te07jdlk0cl" path="res://assets/museum/textures/ceiling/AmbientOcclusionMap.png" id="3_87iq0"]
[ext_resource type="Texture2D" uid="uid://r362l8tox85l" path="res://assets/museum/textures/ceiling/SpecularMap.png" id="4_n2kqs"]
[ext_resource type="Texture2D" uid="uid://c1ie3642da6ur" path="res://assets/museum/textures/ceiling/DisplacementMap.png" id="5_c05wi"]

[resource]
albedo_texture = ExtResource("1_snnfr")
metallic = 0.75
metallic_specular = 1.0
metallic_texture = ExtResource("4_n2kqs")
roughness = 0.85
roughness_texture = ExtResource("5_c05wi")
normal_enabled = true
normal_texture = ExtResource("2_srvv3")
anisotropy = -0.5
anisotropy_flowmap = ExtResource("2_srvv3")
ao_enabled = true
ao_light_affect = 1.0
ao_texture = ExtResource("3_87iq0")
ao_on_uv2 = true
uv1_triplanar = true
uv1_world_triplanar = true
uv2_triplanar = true
uv2_world_triplanar = true
