[gd_resource type="StandardMaterial3D" load_steps=6 format=3 uid="uid://dmck8y61jmedc"]

[ext_resource type="Texture2D" uid="uid://cedpnsgnuupw6" path="res://assets/museum/textures/ridge/ridge.jpg" id="1_v3du3"]
[ext_resource type="Texture2D" uid="uid://bh02aglyadco7" path="res://assets/museum/textures/ridge/AmbientOcclusionMap.png" id="2_82to6"]
[ext_resource type="Texture2D" uid="uid://bhhailtov43h8" path="res://assets/museum/textures/ridge/SpecularMap.png" id="3_ytwqx"]
[ext_resource type="Texture2D" uid="uid://crudvg82iejka" path="res://assets/museum/textures/ridge/NormalMap.png" id="4_b6hep"]
[ext_resource type="Texture2D" uid="uid://i5hiwxeol6it" path="res://assets/museum/textures/ridge/DisplacementMap.png" id="5_bbgm4"]

[resource]
albedo_texture = ExtResource("1_v3du3")
metallic_specular = 1.0
metallic_texture = ExtResource("3_ytwqx")
roughness_texture = ExtResource("5_bbgm4")
normal_enabled = true
normal_scale = 0.42
normal_texture = ExtResource("4_b6hep")
ao_enabled = true
ao_light_affect = 0.33
ao_texture = ExtResource("2_82to6")
ao_on_uv2 = true
ao_texture_channel = 4
subsurf_scatter_strength = 1.0
subsurf_scatter_texture = ExtResource("1_v3du3")
uv1_triplanar = true
uv1_world_triplanar = true
uv2_triplanar = true
uv2_world_triplanar = true
