[gd_resource type="StandardMaterial3D" load_steps=6 format=3 uid="uid://vwwbsy5t3px4"]

[ext_resource type="Texture2D" uid="uid://dx6rwyfq02wef" path="res://assets/museum/textures/wallInterior/wall.jpg" id="1_ouyrl"]
[ext_resource type="Texture2D" uid="uid://c2twsfsisxm6r" path="res://assets/museum/textures/wallInterior/AmbientOcclusionMap.png" id="2_g0hno"]
[ext_resource type="Texture2D" uid="uid://c5127c088xhmw" path="res://assets/museum/textures/wallInterior/SpecularMap.png" id="3_jm47s"]
[ext_resource type="Texture2D" uid="uid://c8lpflyqnba3x" path="res://assets/museum/textures/wallInterior/NormalMap.png" id="4_q72d5"]
[ext_resource type="Texture2D" uid="uid://cr0creguvw1pg" path="res://assets/museum/textures/wallInterior/DisplacementMap.png" id="5_f8pyt"]

[resource]
albedo_texture = ExtResource("1_ouyrl")
metallic = 0.03
metallic_specular = 0.05
metallic_texture = ExtResource("3_jm47s")
roughness = 0.8
roughness_texture = ExtResource("5_f8pyt")
normal_enabled = true
normal_texture = ExtResource("4_q72d5")
ao_enabled = true
ao_light_affect = 0.66
ao_texture = ExtResource("2_g0hno")
ao_on_uv2 = true
uv1_triplanar = true
uv1_world_triplanar = true
uv2_triplanar = true
uv2_world_triplanar = true
