[gd_scene load_steps=3 format=3 uid="uid://diyu06cw06syv"]

[ext_resource type="Script" path="res://addons/godot-xr-tools/player/player_body.gd" id="1"]

[sub_resource type="CapsuleShape3D" id="CapsuleShape3D_vgj64"]
radius = 0.244475
height = 0.48895

[node name="PlayerBody" type="CharacterBody3D" groups=["player_body"]]
top_level = true
collision_layer = 524288
collision_mask = 1023
script = ExtResource("1")

[node name="CollisionShape3D" type="CollisionShape3D" parent="."]
shape = SubResource("CapsuleShape3D_vgj64")
